PID USER      PR  NI    VIRT    RES    SHR S  %CPU %MEM     TIME+ COMMAND
10104 bird      20   0  852144 839164   2512 R 100.0 22.3   0:29.14 bird
10104 bird      20   0  869492 856588   2512 R 100.0 22.8   0:29.34 bird
10104 bird      20   0  888528 875416   2512 R 100.0 23.3   0:29.54 bird
10104 bird      20   0  906328 893368   2512 R 100.0 23.8   0:29.75 bird
10104 bird      20   0  925220 912108   2512 R 100.0 24.3   0:29.95 bird
10104 bird      20   0  944464 931380   2512 R  90.5 24.8   0:30.14 bird
10104 bird      20   0  961136 948012   2512 R 100.0 25.2   0:30.35 bird
10104 bird      20   0  979680 966756   2512 R 100.0 25.7   0:30.55 bird
10104 bird      20   0  997892 984908   2460 R 100.0 26.2   0:30.75 bird
10104 bird      20   0 1016376 979.6m   2460 R 100.0 26.7   0:30.95 bird
10104 bird      20   0 1034280 997.1m   2460 R 100.0 27.2   0:31.15 bird
10104 bird      20   0 1051864 0.991g   2460 R 100.0 27.7   0:31.36 bird
10104 bird      20   0 1069768 1.008g   2460 R  95.2 28.1   0:31.56 bird
10104 bird      20   0 1087224 1.024g   2460 R 100.0 28.6   0:31.76 bird
10104 bird      20   0 1107188 1.043g   2460 R 100.0 29.1   0:31.96 bird
10104 bird      20   0 1123928 1.059g   2460 R 100.0 29.6   0:32.16 bird
10104 bird      20   0 1142076 1.076g   2460 R 100.0 30.0   0:32.36 bird
10104 bird      20   0 1157796 1.091g   2460 R 100.0 30.5   0:32.56 bird
10104 bird      20   0 1175148 1.107g   2460 R 100.0 30.9   0:32.77 bird
10104 bird      20   0 1188928 1.120g   2460 R  90.5 31.3   0:32.96 bird
10104 bird      20   0 1206000 1.136g   2460 R 100.0 31.7   0:33.17 bird
10104 bird      20   0 1218412 1.148g   2460 R 100.0 32.1   0:33.37 bird
10104 bird      20   0 1228840 1.158g   2460 R  95.0 32.3   0:33.56 bird
10104 bird      20   0 1237556 1.166g   2460 R 100.0 32.6   0:33.77 bird
10104 bird      20   0 1245080 1.173g   2460 R 100.0 32.7   0:33.97 bird
10104 bird      20   0 1246668 1.176g   2460 R  95.0 32.9   0:34.16 bird
10104 bird      20   0 1246668 1.176g   2460 R  95.2 32.9   0:34.36 bird
10104 bird      20   0 1246668 1.176g   2460 R 100.0 32.9   0:34.56 bird
10104 bird      20   0 1246668 1.176g   2460 R 100.0 32.9   0:34.76 bird
10104 bird      20   0 1246668 1.176g   2460 R 100.0 32.9   0:34.96 bird
10104 bird      20   0 1246668 1.176g   2460 R 100.0 32.9   0:35.16 bird
10104 bird      20   0 1246668 1.176g   2460 R 100.0 32.9   0:35.36 bird
10104 bird      20   0 1246668 1.176g   2460 R 100.0 32.9   0:35.57 bird
10104 bird      20   0 1246668 1.176g   2460 R 100.0 32.9   0:35.77 bird
10104 bird      20   0 1246668 1.176g   2460 R  90.5 32.9   0:35.96 bird
10104 bird      20   0 1246668 1.176g   2460 R 100.0 32.9   0:36.17 bird
10104 bird      20   0 1246668 1.176g   2460 R 100.0 32.9   0:36.37 bird
10104 bird      20   0 1246668 1.176g   2460 R 100.0 32.9   0:36.57 bird
10104 bird      20   0 1246668 1.176g   2460 R 100.0 32.9   0:36.77 bird
10104 bird      20   0 1246668 1.176g   2460 R 100.0 32.9   0:36.98 bird
10104 bird      20   0 1246668 1.176g   2460 R 100.0 32.9   0:37.18 bird
10104 bird      20   0 1246668 1.176g   2460 R  95.2 32.9   0:37.38 bird
10104 bird      20   0 1246668 1.176g   2460 R 100.0 32.9   0:37.58 bird
10104 bird      20   0 1246668 1.176g   2460 R  95.0 32.9   0:37.77 bird
10104 bird      20   0 1246668 1.176g   2460 R 100.0 32.9   0:37.98 bird
10104 bird      20   0 1246668 1.176g   2460 R 100.0 32.9   0:38.18 bird
10104 bird      20   0 1246668 1.176g   2460 R 100.0 32.9   0:38.38 bird
10104 bird      20   0 1246668 1.176g   2460 R 100.0 32.9   0:38.58 bird
10104 bird      20   0 1246668 1.176g   2460 R 100.0 32.9   0:38.79 bird
10104 bird      20   0 1246668 1.176g   2460 R 100.0 32.9   0:38.99 bird
10104 bird      20   0 1246668 1.176g   2460 R 100.0 32.9   0:39.19 bird
10104 bird      20   0 1246668 1.176g   2460 R 100.0 32.9   0:39.39 bird
10104 bird      20   0 1246668 1.176g   2460 R  95.0 32.9   0:39.58 bird
10104 bird      20   0 1246668 1.176g   2460 R 100.0 32.9   0:39.79 bird
10104 bird      20   0 1246668 1.177g   2460 R  95.0 32.9   0:39.98 bird
10104 bird      20   0 1246668 1.177g   2460 S  15.0 32.9   0:40.01 bird
10104 bird      20   0 1246668 1.177g   2460 S  14.3 32.9   0:40.04 bird
10104 bird      20   0 1246668 1.177g   2460 S   0.0 32.9   0:40.04 bird
10104 bird      20   0 1246668 1.177g   2460 S  10.0 32.9   0:40.06 bird
10104 bird      20   0 1246668 1.177g   2460 S   4.8 32.9   0:40.07 bird
10104 bird      20   0 1246668 1.177g   2460 S  15.0 32.9   0:40.10 bird
10104 bird      20   0 1246668 1.177g   2460 S  10.0 32.9   0:40.12 bird
10104 bird      20   0 1246668 1.177g   2460 S   9.5 32.9   0:40.14 bird
10104 bird      20   0 1246668 1.177g   2460 S   0.0 32.9   0:40.14 bird
10104 bird      20   0 1246668 1.177g   2460 S  10.0 32.9   0:40.16 bird
10104 bird      20   0 1246668 1.177g   2460 S  35.0 32.9   0:40.23 bird
10104 bird      20   0 1246668 1.177g   2460 S   4.8 32.9   0:40.24 bird
10104 bird      20   0 1246668 1.177g   2460 S   5.0 32.9   0:40.25 bird
10104 bird      20   0 1246668 1.177g   2460 S   0.0 32.9   0:40.25 bird
10104 bird      20   0 1246668 1.177g   2460 S   5.0 32.9   0:40.26 bird
10104 bird      20   0 1246668 1.177g   2460 S  14.3 32.9   0:40.29 bird
10104 bird      20   0 1246668 1.177g   2460 S  10.0 32.9   0:40.31 bird
10104 bird      20   0 1246668 1.177g   2460 S   5.0 32.9   0:40.32 bird
10104 bird      20   0 1246668 1.177g   2460 S   0.0 32.9   0:40.32 bird
10104 bird      20   0 1246668 1.177g   2460 S   0.0 32.9   0:40.32 bird
10104 bird      20   0 1246668 1.177g   2460 S  25.0 32.9   0:40.37 bird
10104 bird      20   0 1246668 1.177g   2460 S  23.8 32.9   0:40.42 bird
10104 bird      20   0 1246668 1.177g   2460 S   5.0 32.9   0:40.43 bird
10104 bird      20   0 1246668 1.177g   2460 S   0.0 32.9   0:40.43 bird
10104 bird      20   0 1246668 1.177g   2460 S   0.0 32.9   0:40.43 bird
10104 bird      20   0 1246668 1.177g   2460 R   9.5 32.9   0:40.45 bird
10104 bird      20   0 1246668 1.177g   2460 S  15.0 32.9   0:40.48 bird
10104 bird      20   0 1246668 1.177g   2460 S  10.0 32.9   0:40.50 bird
10104 bird      20   0 1246668 1.177g   2460 S  10.0 32.9   0:40.52 bird
10104 bird      20   0 1246668 1.177g   2460 S   4.8 32.9   0:40.53 bird
10104 bird      20   0 1246668 1.177g   2460 S  25.0 32.9   0:40.58 bird
10104 bird      20   0 1246668 1.177g   2460 S  15.0 32.9   0:40.61 bird
10104 bird      20   0 1246668 1.177g   2460 S   4.8 32.9   0:40.62 bird
10104 bird      20   0 1246668 1.177g   2460 S   0.0 32.9   0:40.62 bird
10104 bird      20   0 1246668 1.177g   2460 R  40.0 32.9   0:40.70 bird
10104 bird      20   0 1246668 1.177g   2460 R 100.0 32.9   0:40.90 bird
10104 bird      20   0       0      0      0 R 100.0  0.0   0:41.10 bird
