AS10026
AS10310
AS109
AS1101
AS1103
AS11179
AS112
AS1126
AS1136
AS1140
AS11816
AS12041
AS12189
AS12301
AS12306
AS12310
AS12315
AS12322
AS12329
AS12350
AS12355
AS12389
AS1239
AS12399
AS1241
AS12414
AS1248
AS12496
AS12552
AS1257
AS12578
AS12637
AS12654
AS1267
AS12695
AS12713
AS12714
AS1273
AS12731
AS12732
AS12759
AS12779
AS12849
AS12850
AS12859
AS12871
AS12874
AS12876
AS12883
AS12902
AS12956
AS12963
AS12969
AS12989
AS13002
AS13030
AS13101
AS13122
AS13157
AS131744
AS13193
AS13194
AS13213
AS132203
AS13237
AS13238
AS13249
AS13285
AS132876
AS13335
AS134390
AS13445
AS134512
AS135391
AS136106
AS13720
AS13768
AS13984
AS14061
AS14127
AS14907
AS15133
AS15169
AS15224
AS15412
AS15435
AS15447
AS1547
AS15480
AS15542
AS15547
AS15557
AS15576
AS15589
AS15600
AS15693
AS15695
AS15703
AS15720
AS15763
AS15772
AS15802
AS15830
AS15879
AS15925
AS15932
AS15943
AS15958
AS15966
AS15967
AS16080
AS16097
AS16147
AS16211
AS16265
AS16276
AS16298
AS16302
AS16347
AS16353
AS16509
AS16637
AS1680
AS16839
AS17222
AS17451
AS17511
AS17554
AS17557
AS1764
AS18001
AS18106
AS18705
AS19551
AS196752
AS19679
AS196844
AS197000
AS197038
AS197156
AS197219
AS197440
AS197595
AS197612
AS197692
AS197727
AS197731
AS197902
AS197981
AS197985
AS198721
AS198792
AS198930
AS199026
AS199139
AS199275
AS199330
AS199332
AS199524
AS199547
AS199660
AS199670
AS199837
AS199939
AS199947
AS200020
AS200023
AS200052
AS200392
AS200478
AS200596
AS200612
AS200756
AS200781
AS200794
AS200904
AS200981
AS201119
AS201288
AS201290
AS201517
AS201791
AS2018
AS201877
AS202053
AS202120
AS202169
AS202189
AS202196
AS202425
AS20278
AS202932
AS202954
AS203040
AS203101
AS203164
AS203596
AS203923
AS203968
AS203976
AS204196
AS20473
AS20485
AS20495
AS204995
AS20504
AS20546
AS20559
AS20562
AS205668
AS205943
AS206264
AS20634
AS20640
AS206676
AS207083
AS20764
AS20766
AS20804
AS20847
AS20857
AS20886
AS20932
AS20936
AS20940
AS20953
AS209530
AS20969
AS209770
AS21013
AS210207
AS210269
AS2119
AS21221
AS21263
AS21320
AS21345
AS21409
AS21478
AS22363
AS22697
AS22822
AS22870
AS2300
AS23106
AS23393
AS23576
AS23939
AS23944
AS23947
AS24167
AS24218
AS24232
AS24482
AS24516
AS24586
AS24608
AS24642
AS24730
AS2484
AS24875
AS24904
AS24940
AS24961
AS25074
AS25091
AS25148
AS25151
AS25152
AS25160
AS25178
AS25180
AS25182
AS25220
AS25291
AS25369
AS25459
AS25542
AS25595
AS25596
AS2603
AS2611
AS26120
AS262632
AS262773
AS263009
AS2635
AS26496
AS265187
AS26667
AS267613
AS268331
AS2686
AS27024
AS27313
AS27381
AS27471
AS28260
AS2828
AS28329
AS2852
AS2854
AS28598
AS286
AS28685
AS28725
AS28788
AS28801
AS28834
AS28876
AS28917
AS28929
AS29017
AS29049
AS2906
AS29075
AS29119
AS2914
AS29140
AS29141
AS29169
AS29208
AS29263
AS293
AS29314
AS29396
AS29405
AS29462
AS29467
AS29479
AS29535
AS29632
AS29697
AS29791
AS29990
AS30081
AS30094
AS30103
AS30132
AS30419
AS30781
AS30818
AS30844
AS30889
AS30925
AS31019
AS31027
AS31042
AS31078
AS31122
AS31133
AS31216
AS31220
AS31319
AS31328
AS31334
AS31383
AS31424
AS31449
AS31477
AS31500
AS31529
AS31577
AS31595
AS31615
AS31638
AS31673
AS3209
AS3214
AS3216
AS3223
AS3225
AS3252
AS3255
AS3257
AS32590
AS3262
AS3265
AS3267
AS32787
AS3292
AS32934
AS32978
AS3302
AS3303
AS33031
AS33047
AS3320
AS3326
AS3327
AS3333
AS33438
AS3356
AS33763
AS33796
AS33849
AS33873
AS33891
AS33915
AS33986
AS34019
AS34087
AS34106
AS34123
AS34141
AS34177
AS34215
AS34224
AS34288
AS34305
AS34309
AS34442
AS34569
AS34655
AS34695
AS34756
AS34762
AS34803
AS34863
AS34868
AS3491
AS34953
AS34968
AS34984
AS35000
AS35030
AS35156
AS35280
AS35297
AS35320
AS35432
AS35574
AS3561
AS35625
AS35745
AS35753
AS35819
AS36060
AS36089
AS36182
AS36236
AS36351
AS36408
AS36459
AS36692
AS36944
AS36994
AS37009
AS37100
AS37179
AS37187
AS37271
AS37282
AS37468
AS37497
AS37564
AS37662
AS38001
AS38040
AS38082
AS38090
AS38158
AS38182
AS3856
AS38645
AS38880
AS38915
AS39063
AS3910
AS39120
AS39122
AS39179
AS39180
AS39244
AS39326
AS39351
AS39386
AS39537
AS39591
AS39637
AS39647
AS39651
AS39686
AS39704
AS39737
AS39832
AS39923
AS40627
AS40676
AS40805
AS40999
AS41041
AS41059
AS41090
AS41095
AS41153
AS41313
AS4134
AS41405
AS41552
AS41690
AS41692
AS41887
AS41913
AS42
AS42184
AS42385
AS42525
AS42541
AS42567
AS42649
AS42707
AS42708
AS42739
AS42794
AS42841
AS43142
AS43190
AS43225
AS43293
AS43350
AS43366
AS43376
AS43404
AS43414
AS43437
AS43531
AS43727
AS43898
AS43942
AS43996
AS44020
AS44034
AS44066
AS44141
AS44431
AS44444
AS4445
AS44592
AS44608
AS44654
AS44684
AS44735
AS44788
AS44814
AS44843
AS44981
AS45015
AS45037
AS45352
AS45430
AS45474
AS45489
AS45629
AS45899
AS45903
AS46235
AS4637
AS46489
AS4651
AS46562
AS4657
AS46786
AS47009
AS47065
AS47147
AS47172
AS47195
AS47232
AS47254
AS47329
AS47441
AS47447
AS47541
AS4755
AS4761
AS47622
AS4766
AS47748
AS47764
AS47836
AS47869
AS4788
AS47886
AS47973
AS48173
AS48200
AS48345
AS4837
AS48519
AS48522
AS48526
AS48858
AS49033
AS49285
AS49360
AS49375
AS49405
AS49453
AS49463
AS49535
AS49544
AS49605
AS49653
AS49685
AS49820
AS49981
AS50010
AS50072
AS50245
AS50266
AS50272
AS50287
AS50295
AS50300
AS50304
AS50309
AS50316
AS50343
AS50352
AS50384
AS50618
AS50622
AS50673
AS50763
AS50812
AS50923
AS51018
AS51028
AS51050
AS51088
AS51167
AS51185
AS51254
AS51468
AS51555
AS51752
AS52041
AS52320
AS52551
AS52965
AS53264
AS5390
AS5394
AS5400
AS5410
AS54104
AS54113
AS5413
AS54183
AS54312
AS5466
AS54825
AS54994
AS55195
AS5524
AS5560
AS5563
AS55799
AS55818
AS5583
AS5588
AS559
AS56396
AS56550
AS56583
AS56611
AS56630
AS56647
AS56654
AS56665
AS56704
AS57043
AS57111
AS57119
AS5713
AS57208
AS57463
AS57928
AS57976
AS58073
AS58138
AS58209
AS58291
AS58453
AS58511
AS58552
AS58580
AS58601
AS58952
AS59318
AS59545
AS59560
AS59605
AS59624
AS59655
AS59701
AS59865
AS59900
AS59940
AS59947
AS60022
AS60144
AS60294
AS60350
AS60501
AS60664
AS60718
AS60764
AS60822
AS60890
AS60893
AS60924
AS61029
AS61200
AS61317
AS61319
AS61323
AS61349
AS61955
AS62041
AS62044
AS62219
AS62245
AS62325
AS62597
AS62713
AS62715
AS62955
AS63113
AS63399
AS63440
AS63541
AS63927
AS63949
AS63956
AS64049
AS64050
AS6412
AS64271
AS6447
AS64515
AS64518
AS64525
AS64527
AS6453
AS64583
AS64595
AS64597
AS6461
AS64650
AS6507
AS6661
AS6663
AS6667
AS6677
AS6682
AS6717
AS6724
AS6730
AS6735
AS6762
AS6774
AS6830
AS6834
AS6866
AS6908
AS6939
AS702
AS714
AS7160
AS7342
AS7415
AS7552
AS7713
AS7862
AS8075
AS8218
AS8220
AS8262
AS8283
AS8304
AS8309
AS8315
AS8339
AS8359
AS8365
AS8368
AS8399
AS8400
AS8403
AS8422
AS8426
AS8447
AS8452
AS8455
AS8462
AS8468
AS8473
AS8487
AS8529
AS8551
AS8560
AS8587
AS8608
AS8632
AS8657
AS8674
AS8708
AS8717
AS8732
AS8758
AS8763
AS8764
AS8767
AS8781
AS8816
AS8821
AS8837
AS8839
AS8866
AS8881
AS8918
AS8932
AS8953
AS8959
AS8966
AS9002
AS9009
AS9029
AS9036
AS9044
AS9050
AS9115
AS9121
AS9145
AS9150
AS9167
AS9269
AS9299
AS9304
AS9318
AS9381
AS9498
AS9583